1. open $~/.config/Code/User/settings.json

2. add these lines:

"editor.quickSuggestions": {
        "other": true,
        "comments": false,
        "strings": false
    }
    
3. Now for autocompletion, type CTRL+SPACE